{
    "fluentMethods": true,
    "relationships": [],
    "fields": [
        {
            "fieldName": "value",
            "fieldType": "Integer",
            "fieldValidateRules": [
                "required"
            ]
        },
        {
            "fieldName": "unit",
            "fieldType": "AgeUnit",
            "fieldValues": "YEARS,MONTHS,WEEKS,DAYS,HOURS,MINUTES,NA",
            "fieldValidateRules": [
                "required"
            ]
        }
    ],
    "dto": "no",
    "service": "no",
    "entityTableName": "age",
    "pagination": "no"
}
