{
    "fluentMethods": true,
    "relationships": [],
    "fields": [
        {
            "fieldName": "label",
            "fieldType": "String",
            "fieldValidateRules": [
                "required"
            ]
        },
        {
            "fieldName": "system",
            "fieldType": "String"
        },
        {
            "fieldName": "code",
            "fieldType": "String"
        },
        {
            "fieldName": "type",
            "fieldType": "String"
        }
    ],
    "dto": "no",
    "service": "no",
    "entityTableName": "intervention",
    "pagination": "no"
}
