{
    "fluentMethods": true,
    "relationships": [
        {
            "relationshipName": "contact",
            "otherEntityName": "contact",
            "relationshipType": "one-to-many",
            "otherEntityRelationshipName": "location"
        },
        {
            "relationshipName": "address",
            "otherEntityName": "address",
            "relationshipType": "one-to-one",
            "ownerSide": false,
            "otherEntityRelationshipName": "location"
        },
        {
            "relationshipName": "organisation",
            "otherEntityName": "organisation",
            "relationshipType": "many-to-one",
            "otherEntityField": "name"
        },
        {
            "relationshipName": "healthservice",
            "otherEntityName": "healthservice",
            "relationshipType": "many-to-many",
            "ownerSide": false,
            "otherEntityField": "name",
            "otherEntityRelationshipName": "location"
        },
        {
            "relationshipName": "trial",
            "otherEntityName": "trial",
            "relationshipType": "many-to-many",
            "ownerSide": false,
            "otherEntityField": "title",
            "otherEntityRelationshipName": "site"
        }
    ],
    "fields": [
        {
            "fieldName": "name",
            "fieldType": "String",
            "fieldValidateRules": [
                "required"
            ]
        },
        {
            "fieldName": "status",
            "fieldType": "LocationStatus",
            "fieldValues": "ACTIVE, SUSPENDED, INACTIVE",
            "fieldValidateRules": [
                "required"
            ]
        },
        {
            "fieldName": "description",
            "fieldType": "String"
        },
        {
            "fieldName": "mode",
            "fieldType": "LocationMode",
            "fieldValues": "INSTANCE, KIND"
        },
        {
            "fieldName": "type",
            "fieldType": "String"
        },
        {
            "fieldName": "physicalType",
            "fieldType": "String"
        }
    ],
    "changelogDate": "20170209052630",
    "dto": "no",
    "service": "serviceImpl",
    "entityTableName": "location",
    "pagination": "infinite-scroll"
}
