{
    "fluentMethods": true,
    "relationships": [],
    "fields": [
        {
            "fieldName": "title",
            "fieldType": "String",
            "fieldValidateRules": [
                "required"
            ]
        },
        {
            "fieldName": "briefTitle",
            "fieldType": "String",
            "fieldValidateRules": [
                "required"
            ]
        },
        {
            "fieldName": "status",
            "fieldType": "TrialStatus",
            "fieldValues": "RECRUITING, SUSPENDED, STOPPED, COMPLETED, DRAFT, NOT_YET_RECRUITING, ENROLLING_BY_INVITATION, ACTIVE_NOT_RECRUITING, TERMINATED, WITHDRAWN, UNKNOWN",
            "fieldValidateRules": [
                "required"
            ]
        },
        {
            "fieldName": "type",
            "fieldType": "StudyType",
            "fieldValues": "INTERVENTIONAL, OBSERVATIONAL, PATIENT_REGISTRY",
            "fieldValidateRules": [
                "required"
            ]
        },
        {
            "fieldName": "phase",
            "fieldType": "String"
        },
        {
            "fieldName": "hasExpandedAccess",
            "fieldType": "Boolean"
        },
        {
            "fieldName": "category",
            "fieldType": "String"
        },
        {
            "fieldName": "focus",
            "fieldType": "String"
        },
        {
            "fieldName": "keyword",
            "fieldType": "String"
        },
        {
            "fieldName": "description",
            "fieldType": "String"
        },
        {
            "fieldName": "recordVerificationDate",
            "fieldType": "ZonedDateTime"
        },
        {
            "fieldName": "startDate",
            "fieldType": "ZonedDateTime"
        },
        {
            "fieldName": "primaryCompletionDate",
            "fieldType": "ZonedDateTime"
        },
        {
            "fieldName": "studyCompletionDate",
            "fieldType": "ZonedDateTime"
        },
        {
            "fieldName": "reasonStopped",
            "fieldType": "String"
        },
        {
            "fieldName": "note",
            "fieldType": "String"
        },
        {
            "fieldName": "briefSummary",
            "fieldType": "String",
            "fieldValidateRules": [
                "required"
            ]
        },
        {
            "fieldName": "detailedDescription",
            "fieldType": "String"
        }
    ],
    "dto": "no",
    "service": "serviceImpl",
    "entityTableName": "clinical_trial",
    "pagination": "infinite-scroll"
}
