{
  "index": {
    "analysis": {
      "analyzer": {
        "nameAnalyzer": {
          "type": "custom",
          "tokenizer": "standard",
          "filter": [
            "word_delimiter",
            "edgeNGram",
            "lowercase"
          ]
        }
      },
      "filter": {
        "edgeNGram": {
          "type": "edgeNGram",
          "min_gram": 2,
          "max_gram": 50,
          "side": "front"
        }
      }
    }
  }
}
